parametro,unidad,valor,clase,minA,maxA,ruleMinA,ruleMaxA,minB,maxB,ruleMinB,ruleMaxB,minC,maxC,ruleMinC,ruleMaxC,minD,maxD,ruleMinD,ruleMaxD,criticMin,criticMax,ruleCriticMin,ruleCriticMax,fiftyPercent,idGrupo
Conductividad,,,,0,140,>=,<=,140,300,>,<=,300,500,>,<=,500,1600,>,<=,1600,,>,,,1
Oxigeno disuelto,%,,,80,,>,,70,80,>=,<=,60,70,>=,<=,50,60,>=,<,50,,<,,,1
pH,,,,6,8.5,>=,<=,8.5,9,>,<=,,,,,,,,,6,9,<,>,5.7 < pH <9.2,1
Solidos disueltos totales,mg/L,,,0,1000,>=,<=,,,,,1000,1500,>,<=,,,,,1500,,>,,2250,1
Solidos sedimentarios,mg/L,,,0,10,>=,<,10,30,>=,<,30,50,>=,<,50,100,,,100,,>=,,150,1
Solidos suspendidos totales,mg/L,,,0,1,>=,<=,1,10,>,<=,10,100,>,<=,100,200,>,<=,,,,,,1
Temperatura,C,,,-3,3,,,-3,3,,,-3,3,,,-3,3,,,-3,3,,,,1
Turbidez,UNT,,,0,10,>=,<,10,50,>=,<,50,100,>=,<,100,200,>=,<,200,,>=,,300,1
Color,mg/L,,,0,10,>=,<,10,50,>=,<,50,100,>=,<,100,200,>=,<,200,,>=,,300,1
Solidos Flotantes,mg/L,,,,,,,,,,,,,,,,,,,,,,,,1
Aluminio (c/Al),mg/L,,,0,0.2,>=,<=,0.2,0.5,>,<=,0.5,1,>,<=,,,,,1,,>,,1.5,2
Antimonio (c/Sb),mg/L,,,0,0.01,>=,<=,,,,,,,,,,,,,0.01,,>,,0.015,2
Arsenico total (c/As),mg/L,,,0,0.05,>=,<=,,,,,,,,,0.05,0.1,>,<=,0.1,,>,,,2
Bario (c/Ba),mg/L,,,0,0.1,>=,<=,,,,,1,2,>,<=,2,5,>,<=,5,,>,,7.5,2
Berilio (c/Be),mg/L,,,0,0.001,>=,<=,,,,,,,,,,,,,0.001,,>,,0.0015,2
Boro (c/B),mg/L,,,0,1,>=,<=,,,,,,,,,,,,,1,,>,,1.5,2
Calcio (c/Ca),mg/L,,,0,200,>=,<=,200,300,>,<=,,,,,300,400,>,<=,400,,>,,600,2
Cadmio (c/Cd),mg/L,,,0,0.005,>=,<=,,,,,,,,,,,,,0.005,,>,,,2
Cobre (c/Cu),mg/L,,,0,0.05,>=,<=,0.05,1,,,,,,,,,,,1,,>,,1.5,2
Cobalto (c/Co),mg/L,,,0,0.1,>=,<=,0.1,0.2,>,<=,,,,,,,,,0.2,,>,,0.3,2
Cromo Hexavalente (c/Cr6+),mg/L,,,0,0.05,>=,<=,,,,,,,,,,,,,0.05,,>,,,2
Cromo Trivalente (c/Cr3+),mg/L,,,0,0.12,>=,<=,0.12,0.6,>,<=,,,,,0.6,1.1,>,<=,1.1,,>,,1.65,2
Estaño (c/Sn),mg/L,,,0,2,>=,<=,,,,,,,,,,,,,2,,>,,3,2
Hierro Soluble (c/Fe),mg/L,,,0,0.3,>=,<=,,,,,0.3,1,>,<=,,,,,1,,>,,1.5,2
Litio (c/Li),mg/L,,,0,2.5,>=,<=,,,,,,,,,2.5,5,>,<=,,,>,,7.5,2
Magnesio (c/Mg),mg/L,,,0,100,>=,<=,,,,,100,150,>,<=,,,,,150,,>,,225,2
Manganeso (c/Mn),mg/L,,,0,0.5,>=,<=,0.5,1,>,<=,,,,,,,,,1,,>,,1.5,2
Mercurio (c/Hg),mg/L,,,0,0.001,>=,<=,,,,,,,,,,,,,0.001,,>,,,2
Niquel (c/Ni),mg/L,,,0,0.05,>=,<=,,,,,0.05,0.5,>,<=,,,,,0.5,,>,,0.75,2
Plata (c/Ag),mg/L,,,0,0.05,>=,<=,,,,,,,,,,,,,0.05,,>,,0.075,2
Plomo (c/Pb),mg/L,,,0,0.05,>=,<=,,,,,,,,,0.05,0.1,>,<=,0.1,,>,,,2
Selenio (c/Se),mg/L,,,0,0.01,>=,<=,,,,,,,,,0.01,0.05,>,<=,0.05,,>,,0.075,2
Sodio (c/Na),mg/L,,,0,200,>=,<=,,,,,,,,,,,,,200,,>,,300,2
Uranio total (c/U),mg/L,,,0,0.02,>=,<=,,,,,,,,,,,,,0.02,,>,,0.03,2
Vanadio (c/V),mg/L,,,0,0.1,>=,<=,,,,,,,,,,,,,0.1,,>,,0.15,2
Zinc (c/Zn),mg/L,,,0,0.2,>=,<=,,,,,0.2,5,>,<=,,,,,5,,>,,7.5,2
Amoniaco (c/NH3),mg/L,,,0,0.05,>=,<=,0.05,1,>,<=,1,2,>,<=,2,4,>,<=,4,,>,,6,3
Cianuros (c/CN),mg/L,,,0,0.02,>=,<=,0.02,0.1,>,<=,0.1,0.2,>,<=,,,,,0.2,,>,,,3
Cloruros (c/Cl),mg/L,,,0,250,>=,<=,250,300,>,<=,300,400,>,<=,400,500,>,<=,500,,>,,750,3
Fluoruros (c/F),mg/L,,,0,0.6,>=,<=,0.6,1.7,>,<=,,,,,,,,,1.7,,>,,2.55,3
Fosfato Total (c/PO43-),mg/L,,,0,0.4,>=,<=,0.4,0.5,>,<=,0.5,1,>,<=,,,,,1,,>,,,3
Nitrato (c/NO3-),mg/L,,,0,20,>=,<=,20,50,>,<=,,,,,,,,,50,,>,,75,3
Nitrito (c/NO2-),mg/L,,,0,1,>=,<=,,1,,=,,,,,,,,,1,,>,,1.5,3
Nitrogeno total (c/N),mg/L,,,0,5,>=,<=,5,12,>,<=,,,,,,,,,12,,>,,18,3
Sulfatos (c/SO4),mg/L,,,0,300,>=,<=,300,400,>,<=,,,,,,,,,400,,>,,600,3
Sulfuros (c/S),mg/L,,,0,0.1,>=,<=,,,,,0.1,0.5,>,<=,0.5,1,>,<=,1,,>,,1.5,3
Benceno (c/C6H6),µg/L,,,0,2,>=,<=,2,6,>,<=,6,10,>,<=,,,,,10,,>,,15,4
Dicloroetano (C2H4Cl2),µg/L,,,0,10,>=,<=,,,,,,,,,,,,,10,,>,,15,4
Dicloroetileno (C2H2Cl2),µg/L,,,0,0.3,>=,<=,,,,,,,,,,,,,0.3,,>,,0.45,4
Fenoles (c/C6H5OH),µg/L,,,0,1,>=,<=,,,,,1,5,>,<=,5,10,>,<=,10,,>,,15,4
Pentaclorofenol,µg/L,,,0,5,>=,<=,5,10,>,<=,,,,,,,,,10,,>,,15,4
Tetracloroetano,µg/L,,,0,10,>=,<=,,,,,,,,,,,,,10,,>,,15,4
Tricloroetano,µg/L,,,0,30,>=,<=,,,,,,,,,,,,,30,,>,,45,4
Tetracloruro de Carbono,µg/L,,,0,3,>=,<=,,,,,,,,,,,,,3,,>,,4.5,4
Triclorofenol,µg/L,,,0,10,>=,<=,,,,,,,,,,,,,10,,>,,15,4
Aceites y Grasas,mg/L,,,,,,,,,,,0,0.3,>=,<=,0.3,1,>,<=,1,,>,,1.5,5
DBO5 (c/O2),mg/L,,,0,2,>=,<,2,5,>=,<,5,20,>=,<,20,30,>=,<,30,,>=,,,5
DQO  (c/O2),mg/L,,,0,5,>=,<,5,10,>=,<,10,40,>=,<,40,60,>=,<,60,,>=,,,5
SAAM (Detergentes),mg/L,,,0,0.5,>=,<=,,,,,,,,,,,,,0.5,,>,,0.75,5
Bifenilos Policlorados (PCB’s),mg/L,,,0,0,=,=,0,0.001,>,<=,,,,,,,,,0.001,,>,,0.0015,5
Aldrin,µg/L,,,0,0.03,>=,<=,,,,,,,,,,,,,0.03,,>,,,6
Dieldrín,µg/L,,,0,0.03,>=,<=,,,,,,,,,,,,,0.03,,>,,,6
Clordano @,µg/L,,,0,0.3,>=,<=,,,,,,,,,,,,,0.3,,>,,,6
DDT @,µg/L,,,0,1,>=,<=,,,,,,,,,,,,,1,,>,,,6
Endrin @,µg/L,,,,,,,,,,,,,,,,,,,0,,>,,,6
Endosulfan @,µg/L,,,0,70,>=,<=,,,,,,,,,,,,,70,,>,,105,6
Heptacloro,µg/L,,,0,0.1,>=,<=,,,,,,,,,,,,,0.1,,>,,0.15,6
Heptacloripoxido @,µg/L,,,0,0.1,>=,<=,,,,,,,,,,,,,0.1,,>,,0.15,6
Lindano (Gama-BHC) @,µg/L,,,0,3,>=,<=,,,,,,,,,,,,,3,,>,,4.5,6
Metoxicloro,µg/L,,,0,30,>=,<=,,,,,,,,,,,,,30,,>,,45,6
Toxafeno @,µg/L,,,0,0.01,>=,<=,,,,,,,,,0.01,0.05,>,<=,0.05,,>,,0.075,6
Demetón,µg/L,,,0,0.1,>=,<=,,,,,,,,,,,,,0.1,,>,,0.15,6
Gutión,µg/L,,,0,0.01,>=,<=,,,,,,,,,,,,,0.01,,>,,0.015,6
Malatión,µg/L,,,0,0.04,>=,<=,,,,,,,,,,,,,0.04,,>,,,6
Paratión @,µg/L,,,,,,,,,,,,,,,,,,,,,,,,6
Carbaril,µg/L,,,0,0,=,=,0,0.02,>,<=,,,,,,,,,0.02,,>,,0.03,6
"2,4-D; Diclorofenoxiacético",µg/L,,,0,100,>=,<=,,,,,,,,,,,,,100,,>,,150,6
"2,4,5-TP; Ácido 2(2,4,5 triclorofenoxi) propiónico",µg/L,,,0,10,>=,<=,,,,,,,,,,,,,10,,>,,15,6
"2,4,5 - T; Ácido 2,4,5 triclorofenoxiacético",µg/L,,,0,2,>=,<=,,,,,,,,,,,,,2,,>,,3,6
Colifecales,NMP/100 mL,,,0,5,>=,<,5,200,>=,<,200,1000,>=,<,1000,5000,>=,<,5000,,>=,,,7
Parasitos,N/L,,,0,1,>=,<,,,,,,,,,,,,,1,,>=,,,7
Radiación alfa global,Bq/L,,,0,0.1,>=,<=,,,,,,,,,,,,,0.1,,>,,0.15,8
Radiación beta global,Bq/L,,,0,1,>=,<=,,,,,,,,,,,,,1,,>,,1.5,8